02_clean
…
Loading data:

WHO TB incidence estimates disaggregated by age group, sex and risk factor [>0.5Mb]:

#Loading age and sex and risk group data (2024 only): 

data_file   <- "01_load_TB_age_sex.tsv"
TB_age_sex <- load_data(data_file)

Loading ../data/01_load_TB_age_sex.tsv from local file…

#Display the data: 
TB_age_sex

# A tibble: 9,031 × 13
   country     iso2  iso3  iso_numeric  year measure unit  age_group sex  
   <chr>       <chr> <chr> <chr>       <dbl> <chr>   <chr> <chr>     <chr>
 1 Afghanistan AF    AFG   004          2024 inc     num   0-14      a    
 2 Afghanistan AF    AFG   004          2024 inc     num   0-14      f    
 3 Afghanistan AF    AFG   004          2024 inc     num   0-14      m    
 4 Afghanistan AF    AFG   004          2024 inc     num   0-4       a    
 5 Afghanistan AF    AFG   004          2024 inc     num   0-4       f    
 6 Afghanistan AF    AFG   004          2024 inc     num   0-4       m    
 7 Afghanistan AF    AFG   004          2024 inc     num   10-14     a    
 8 Afghanistan AF    AFG   004          2024 inc     num   10-14     f    
 9 Afghanistan AF    AFG   004          2024 inc     num   10-14     m    
10 Afghanistan AF    AFG   004          2024 inc     num   15-19     a    
# ℹ 9,021 more rows
# ℹ 4 more variables: risk_factor <chr>, best <dbl>, lo <dbl>, hi <dbl>

WHO TB burden estimates [>1Mb]:

#Loading TB burden estimates: 

data_file   <- "01_load_TB_burden.tsv"
TB_burden <- load_data(data_file)

Loading ../data/01_load_TB_burden.tsv from local file…

#Display the data: 
TB_burden

# A tibble: 5,347 × 50
   country     iso2  iso3  iso_numeric g_whoregion  year e_pop_num e_inc_100k
   <chr>       <chr> <chr> <chr>       <chr>       <dbl>     <dbl>      <dbl>
 1 Afghanistan AF    AFG   004         EMR          2000  20130323        148
 2 Afghanistan AF    AFG   004         EMR          2001  20284311        175
 3 Afghanistan AF    AFG   004         EMR          2002  21378110        197
 4 Afghanistan AF    AFG   004         EMR          2003  22733047        215
 5 Afghanistan AF    AFG   004         EMR          2004  23560660        228
 6 Afghanistan AF    AFG   004         EMR          2005  24404569        237
 7 Afghanistan AF    AFG   004         EMR          2006  25424099        242
 8 Afghanistan AF    AFG   004         EMR          2007  25909852        241
 9 Afghanistan AF    AFG   004         EMR          2008  26482615        235
10 Afghanistan AF    AFG   004         EMR          2009  27466100        229
# ℹ 5,337 more rows
# ℹ 42 more variables: e_inc_100k_lo <dbl>, e_inc_100k_hi <dbl>,
#   e_inc_num <dbl>, e_inc_num_lo <dbl>, e_inc_num_hi <dbl>,
#   e_tbhiv_prct <dbl>, e_tbhiv_prct_lo <lgl>, e_tbhiv_prct_hi <lgl>,
#   e_inc_tbhiv_100k <dbl>, e_inc_tbhiv_100k_lo <dbl>,
#   e_inc_tbhiv_100k_hi <dbl>, e_inc_tbhiv_num <dbl>, e_inc_tbhiv_num_lo <dbl>,
#   e_inc_tbhiv_num_hi <dbl>, e_mort_exc_tbhiv_100k <dbl>, …
…
data_file   <- "01_load_dictionary.tsv"
TB_dictionary <- load_data(data_file)

Loading ../data/01_load_dictionary.tsv from local file…

Warning: One or more parsing issues, call `problems()` on your data frame for details,
e.g.:
  dat <- vroom(...)
  problems(dat)

#Display the data: 
TB_dictionary

# A tibble: 699 × 4
   variable_name   dataset code_list definition                                 
   <chr>           <chr>   <chr>     <chr>                                      
 1 budget_cpp_dstb Budget  <NA>      Average cost of drugs budgeted per patient…
 2 budget_cpp_mdr  Budget  <NA>      Average cost of drugs budgeted per patient…
 3 budget_cpp_tpt  Budget  <NA>      Average cost of drugs budgeted per patient…
 4 budget_cpp_xdr  Budget  <NA>      Average cost of drugs budgeted per patient…
 5 budget_fld      Budget  <NA>      Budget required for drugs to treat drug-su…
 6 budget_lab      Budget  <NA>      Budget required for laboratory infrastruct…
 7 budget_mdrmgt   Budget  <NA>      Budget required for programme costs to tre…
 8 budget_orsrvy   Budget  <NA>      Budget required for operational research a…
 9 budget_oth      Budget  <NA>      Budget required for all other budget line …
10 budget_patsup   Budget  <NA>      Budget required for patient support (US Do…
# ℹ 689 more rows

WHO MDR/RR-TB burden estimates:

#Loading MDR/RR-TB burden estimates

data_file <- "01_load_MDR_RR_burden_estimates.tsv"
mdr_rr_data <- load_data(data_file)

Loading ../data/01_load_MDR_RR_burden_estimates.tsv from local file…

#Display the data_
mdr_rr_data

# A tibble: 2,150 × 20
   country  iso2  iso3  iso_numeric g_whoregion  year source_rr_new e_rr_pct_new
   <chr>    <chr> <chr> <chr>       <chr>       <dbl> <chr>                <dbl>
 1 Afghani… AF    AFG   004         EMR          2015 Surveillance           8.7
 2 Afghani… AF    AFG   004         EMR          2016 Surveillance           7.3
 3 Afghani… AF    AFG   004         EMR          2017 Surveillance           6  
 4 Afghani… AF    AFG   004         EMR          2018 Surveillance           5  
 5 Afghani… AF    AFG   004         EMR          2019 Surveillance           4.1
 6 Afghani… AF    AFG   004         EMR          2020 Surveillance           3.4
 7 Afghani… AF    AFG   004         EMR          2021 Surveillance           2.8
 8 Afghani… AF    AFG   004         EMR          2022 Surveillance           2.4
 9 Afghani… AF    AFG   004         EMR          2023 Surveillance           2  
10 Afghani… AF    AFG   004         EMR          2024 Surveillance           1.6
# ℹ 2,140 more rows
# ℹ 12 more variables: e_rr_pct_new_lo <dbl>, e_rr_pct_new_hi <dbl>,
#   source_rr_ret <chr>, e_rr_pct_ret <dbl>, e_rr_pct_ret_lo <dbl>,
#   e_rr_pct_ret_hi <dbl>, e_inc_rr_num <dbl>, e_inc_rr_num_lo <dbl>,
#   e_inc_rr_num_hi <dbl>, e_rr_in_notified_labconf_pulm <dbl>,
#   e_rr_in_notified_labconf_pulm_lo <dbl>,
#   e_rr_in_notified_labconf_pulm_hi <dbl>

WHO Household contacts estimates:

#Loading LTBI estimates (Household contacts) data:

data_file   <- "01_load_LTBI_estimates.tsv"
ltbi_data <- load_data(data_file)

Loading ../data/01_load_LTBI_estimates.tsv from local file…

#Display the data: 
ltbi_data

# A tibble: 1,900 × 25
   country     iso2  iso3  iso_numeric g_whoregion  year source_hh     e_hh_size
   <chr>       <chr> <chr> <chr>       <chr>       <dbl> <chr>             <dbl>
 1 Afghanistan AF    AFG   004         EMR          2015 DHS; 2015-10…      8.04
 2 Afghanistan AF    AFG   004         EMR          2016 DHS; 2015-10…      8.04
 3 Afghanistan AF    AFG   004         EMR          2017 DHS; 2015-10…      8.04
 4 Afghanistan AF    AFG   004         EMR          2018 DHS; 2015-10…      8.04
 5 Afghanistan AF    AFG   004         EMR          2019 DHS; 2015-10…      8.04
 6 Afghanistan AF    AFG   004         EMR          2020 DHS; 2015-10…      8.04
 7 Afghanistan AF    AFG   004         EMR          2021 DHS; 2015-10…      8.04
 8 Afghanistan AF    AFG   004         EMR          2022 DHS; 2015-10…      8.04
 9 Afghanistan AF    AFG   004         EMR          2023 DHS; 2015-10…      8.04
10 Afghanistan AF    AFG   004         EMR          2024 DHS; 2015-10…      8.04
# ℹ 1,890 more rows
# ℹ 17 more variables: prevtx_data_available <dbl>, newinc_con_prevtx <dbl>,
#   newinc_con04_prevtx <dbl>, ptsurvey_newinc <dbl>,
#   ptsurvey_newinc_con04_prevtx <dbl>, e_hh_contacts <dbl>,
#   e_hh_contacts_lo <dbl>, e_hh_contacts_hi <dbl>,
#   e_prevtx_hh_contacts_pct <dbl>, e_prevtx_hh_contacts_pct_lo <dbl>,
#   e_prevtx_hh_contacts_pct_hi <dbl>, e_prevtx_eligible <dbl>, …
…
Get only the data dictionary based on burden countries (and some extra) to understand the data on TB_burden and be able to properly clean it:

#
variables <- c('iso3','iso2','iso_numeric','g_whoregion','year')

TB_dictionary |> 
  filter(
    variable_name %in% variables | 
    str_starts(variable_name, 'e_') | 
    str_starts(variable_name, 'cfr') | 
    str_starts(variable_name, 'c_')
)

# A tibble: 79 × 4
   variable_name dataset                code_list                     definition
   <chr>         <chr>                  <chr>                         <chr>     
 1 g_whoregion   Country identification AFR=Africa; AMR=Americas; EM… WHO region
 2 iso_numeric   Country identification <NA>                          ISO numer…
 3 iso2          Country identification <NA>                          ISO 2-cha…
 4 iso3          Country identification <NA>                          ISO 3-cha…
 5 c_cdr         Estimates              <NA>                          Case dete…
 6 c_cdr_hi      Estimates              <NA>                          Case dete…
 7 c_cdr_lo      Estimates              <NA>                          Case dete…
 8 c_newinc_100k Estimates              <NA>                          Case noti…
 9 cfr           Estimates              <NA>                          Estimated…
10 cfr_hi        Estimates              <NA>                          Estimated…
# ℹ 69 more rows
…
TB_burden |> count()

# A tibble: 1 × 1
      n
  <int>
1  5347

na_counts

# A tibble: 50 × 2
   Column        NA_Count
   <chr>            <int>
 1 country              0
 2 iso2                25
 3 iso3                 0
 4 iso_numeric          0
 5 g_whoregion          0
 6 year                 0
 7 e_pop_num            0
 8 e_inc_100k          25
 9 e_inc_100k_lo       25
10 e_inc_100k_hi       25
# ℹ 40 more rows

Check the reason for missing values. For the cases with only 25 cases we can see it’s because of Namibia not having an iso2 country code, and also for North Korea not providing enough information.

For cases like e_tbhiv_prct_lo and e_tbhiv_prct_hi we see that the whole column is filled with NA’s. And finally there are some other columns with NA’s on some specific countries.

TB_burden |> filter(is.na(iso2)) #Data from Namibia

# A tibble: 25 × 50
   country iso2  iso3  iso_numeric g_whoregion  year e_pop_num e_inc_100k
   <chr>   <chr> <chr> <chr>       <chr>       <dbl>     <dbl>      <dbl>
 1 Namibia <NA>  NAM   516         AFR          2000   1818651        985
 2 Namibia <NA>  NAM   516         AFR          2001   1857048       1100
 3 Namibia <NA>  NAM   516         AFR          2002   1889967       1190
 4 Namibia <NA>  NAM   516         AFR          2003   1917455       1240
 5 Namibia <NA>  NAM   516         AFR          2004   1942083       1260
 6 Namibia <NA>  NAM   516         AFR          2005   1966573       1250
 7 Namibia <NA>  NAM   516         AFR          2006   1991890       1210
 8 Namibia <NA>  NAM   516         AFR          2007   2018595       1140
 9 Namibia <NA>  NAM   516         AFR          2008   2047048       1060
10 Namibia <NA>  NAM   516         AFR          2009   2077400        974
# ℹ 15 more rows
# ℹ 42 more variables: e_inc_100k_lo <dbl>, e_inc_100k_hi <dbl>,
#   e_inc_num <dbl>, e_inc_num_lo <dbl>, e_inc_num_hi <dbl>,
#   e_tbhiv_prct <dbl>, e_tbhiv_prct_lo <lgl>, e_tbhiv_prct_hi <lgl>,
#   e_inc_tbhiv_100k <dbl>, e_inc_tbhiv_100k_lo <dbl>,
#   e_inc_tbhiv_100k_hi <dbl>, e_inc_tbhiv_num <dbl>, e_inc_tbhiv_num_lo <dbl>,
#   e_inc_tbhiv_num_hi <dbl>, e_mort_exc_tbhiv_100k <dbl>, …

TB_burden |> filter(is.na(e_inc_100k)) #Data from Korea

# A tibble: 25 × 50
   country        iso2  iso3  iso_numeric g_whoregion  year e_pop_num e_inc_100k
   <chr>          <chr> <chr> <chr>       <chr>       <dbl>     <dbl>      <dbl>
 1 Democratic Pe… KP    PRK   408         SEA          2000  23665911         NA
 2 Democratic Pe… KP    PRK   408         SEA          2001  23815359         NA
 3 Democratic Pe… KP    PRK   408         SEA          2002  23943979         NA
 4 Democratic Pe… KP    PRK   408         SEA          2003  24090380         NA
 5 Democratic Pe… KP    PRK   408         SEA          2004  24254941         NA
 6 Democratic Pe… KP    PRK   408         SEA          2005  24396437         NA
 7 Democratic Pe… KP    PRK   408         SEA          2006  24524508         NA
 8 Democratic Pe… KP    PRK   408         SEA          2007  24646381         NA
 9 Democratic Pe… KP    PRK   408         SEA          2008  24764617         NA
10 Democratic Pe… KP    PRK   408         SEA          2009  24878341         NA
# ℹ 15 more rows
# ℹ 42 more variables: e_inc_100k_lo <dbl>, e_inc_100k_hi <dbl>,
#   e_inc_num <dbl>, e_inc_num_lo <dbl>, e_inc_num_hi <dbl>,
#   e_tbhiv_prct <dbl>, e_tbhiv_prct_lo <lgl>, e_tbhiv_prct_hi <lgl>,
#   e_inc_tbhiv_100k <dbl>, e_inc_tbhiv_100k_lo <dbl>,
#   e_inc_tbhiv_100k_hi <dbl>, e_inc_tbhiv_num <dbl>, e_inc_tbhiv_num_lo <dbl>,
#   e_inc_tbhiv_num_hi <dbl>, e_mort_exc_tbhiv_100k <dbl>, …

TB_burden |> filter(is.na(e_tbhiv_prct)) #Data for random columns

# A tibble: 895 × 50
   country        iso2  iso3  iso_numeric g_whoregion  year e_pop_num e_inc_100k
   <chr>          <chr> <chr> <chr>       <chr>       <dbl>     <dbl>      <dbl>
 1 American Samoa AS    ASM   016         WPR          2000     56851        5.3
 2 American Samoa AS    ASM   016         WPR          2001     57051        5.3
 3 American Samoa AS    ASM   016         WPR          2002     57053        3.5
 4 American Samoa AS    ASM   016         WPR          2003     56972        5.3
 5 American Samoa AS    ASM   016         WPR          2004     56817        8.8
 6 American Samoa AS    ASM   016         WPR          2005     56615       11  
 7 American Samoa AS    ASM   016         WPR          2006     56367        7.1
 8 American Samoa AS    ASM   016         WPR          2007     56115        5.3
 9 American Samoa AS    ASM   016         WPR          2008     55836        5.4
10 American Samoa AS    ASM   016         WPR          2009     55527        7.2
# ℹ 885 more rows
# ℹ 42 more variables: e_inc_100k_lo <dbl>, e_inc_100k_hi <dbl>,
#   e_inc_num <dbl>, e_inc_num_lo <dbl>, e_inc_num_hi <dbl>,
#   e_tbhiv_prct <dbl>, e_tbhiv_prct_lo <lgl>, e_tbhiv_prct_hi <lgl>,
#   e_inc_tbhiv_100k <dbl>, e_inc_tbhiv_100k_lo <dbl>,
#   e_inc_tbhiv_100k_hi <dbl>, e_inc_tbhiv_num <dbl>, e_inc_tbhiv_num_lo <dbl>,
#   e_inc_tbhiv_num_hi <dbl>, e_mort_exc_tbhiv_100k <dbl>, …
…
But there are some problems as for example column “cfr_pct” refers to case fatality ratio percentage, though there are some other columns like “c_cdr” which are also expressed in terms of percentage as we can see when looking at the data dictionary. Therefore, those columns will be renamed for better understandably:

TB_burden_clean <- TB_burden |> 
  rename(
    c_cdr_pct = c_cdr,
    c_cdr_pct_lo = c_cdr_lo,
    c_cdr_pct_hi = c_cdr_hi
  )

Show the first 50 rows of TB_burden_clean (sanity check):

head(TB_burden_clean,50)

# A tibble: 50 × 45
   country    g_whoregion  year e_pop_num e_inc_100k e_inc_100k_lo e_inc_100k_hi
   <chr>      <chr>       <dbl>     <dbl>      <dbl>         <dbl>         <dbl>
 1 Afghanist… EMR          2000  20130323        148            46          1510
 2 Afghanist… EMR          2001  20284311        175            66          1320
 3 Afghanist… EMR          2002  21378110        197            83          1140
 4 Afghanist… EMR          2003  22733047        215            97           992
 5 Afghanist… EMR          2004  23560660        228           109           862
 6 Afghanist… EMR          2005  24404569        237           118           754
 7 Afghanist… EMR          2006  25424099        242           124           662
 8 Afghanist… EMR          2007  25909852        241           127           597
 9 Afghanist… EMR          2008  26482615        235           127           559
10 Afghanist… EMR          2009  27466100        229           126           523
# ℹ 40 more rows
# ℹ 38 more variables: e_inc_num <dbl>, e_inc_num_lo <dbl>, e_inc_num_hi <dbl>,
#   e_tbhiv_prct <dbl>, e_inc_tbhiv_100k <dbl>, e_inc_tbhiv_100k_lo <dbl>,
#   e_inc_tbhiv_100k_hi <dbl>, e_inc_tbhiv_num <dbl>, e_inc_tbhiv_num_lo <dbl>,
#   e_inc_tbhiv_num_hi <dbl>, e_mort_exc_tbhiv_100k <dbl>,
#   e_mort_exc_tbhiv_100k_lo <dbl>, e_mort_exc_tbhiv_100k_hi <dbl>,
#   e_mort_exc_tbhiv_num <dbl>, e_mort_exc_tbhiv_num_lo <dbl>, …

Now we previously saw with a count() that there are 5347 rows, if we take in account that there are 25 years per country, then 5347/25 is not an integer. Therefore, we need to check which country or countries provided information from less years.

TB_burden |> 
  group_by(year) |> 
  summarize(n = n())

# A tibble: 25 × 2
    year     n
   <dbl> <int>
 1  2000   211
 2  2001   211
 3  2002   212
 4  2003   212
 5  2004   212
 6  2005   213
 7  2006   213
 8  2007   213
 9  2008   213
10  2009   213
# ℹ 15 more rows
…
    #method for new TB
    rr_method_new = source_rr_new,
    
    #method for previously treated TB
    rr_method_treat = source_rr_ret
  )

What is the number of observations per year and per country?

mdr_rr_data |> count(country)

# A tibble: 215 × 2
   country                 n
   <chr>               <int>
 1 Afghanistan            10
 2 Albania                10
 3 Algeria                10
 4 American Samoa         10
 5 Andorra                10
 6 Angola                 10
 7 Anguilla               10
 8 Antigua and Barbuda    10
 9 Argentina              10
10 Armenia                10
# ℹ 205 more rows
…
Removing ‘iso2’ and other redundant variables as with other datasets:

#Removing redundant columns
mdr_rr_data <- mdr_rr_data |> 
  select(-iso2, -iso3, -iso_numeric)

Are there countries that are entirely missing estimated values for all observations?

mdr_rr_data |> 
  group_by(country) |> 
  summarise(all_missing = all(is.na(rr_incidence))) |> 
  filter(all_missing)

# A tibble: 33 × 2
   country                all_missing
   <chr>                  <lgl>      
 1 American Samoa         TRUE       
 2 Andorra                TRUE       
 3 Anguilla               TRUE       
 4 Antigua and Barbuda    TRUE       
 5 Aruba                  TRUE       
 6 Barbados               TRUE       
 7 Bermuda                TRUE       
 8 British Virgin Islands TRUE       
 9 Cayman Islands         TRUE       
10 Cook Islands           TRUE       
# ℹ 23 more rows
…
